
G20
G90
G94
F3.30
G00 Z0.1000
M03
G4 P1
G00 X-1.8204Y1.5551
G01 Z-0.1000
G01 Z0
G00 Z0.1000
G00 X-2.5842Y1.5551
G01 Z-0.1000
G01 Z0
G00 Z0.1000
G00 X-3.7560Y3.0490
G01 Z-0.1000
G01 Z0
G00 Z0.1000
G00 X-3.6560Y3.0490
G01 Z-0.1000
G01 Z0
G00 Z0.1000
G00 X-3.5560Y3.0490
G01 Z-0.1000
G01 Z0
G00 Z0.1000
G00 X-3.4560Y3.0490
G01 Z-0.1000
G01 Z0
G00 Z0.1000
G00 X-3.3560Y3.0490
G01 Z-0.1000
G01 Z0
G00 Z0.1000
G00 X-3.2560Y3.0490
G01 Z-0.1000
G01 Z0
G00 Z0.1000
G00 X-3.1560Y3.0490
G01 Z-0.1000
G01 Z0
G00 Z0.1000
G00 X-3.0560Y3.0490
G01 Z-0.1000
G01 Z0
G00 Z0.1000
G00 X-2.9560Y3.0490
G01 Z-0.1000
G01 Z0
G00 Z0.1000
G00 X-2.8560Y3.0490
G01 Z-0.1000
G01 Z0
G00 Z0.1000
G00 X-2.7560Y3.0490
G01 Z-0.1000
G01 Z0
G00 Z0.1000
G00 X-2.6560Y3.0490
G01 Z-0.1000
G01 Z0
G00 Z0.1000
G00 X-2.5560Y3.0490
G01 Z-0.1000
G01 Z0
G00 Z0.1000
G00 X-2.4560Y3.0490
G01 Z-0.1000
G01 Z0
G00 Z0.1000
G00 X-2.4560Y3.6490
G01 Z-0.1000
G01 Z0
G00 Z0.1000
G00 X-2.5560Y3.6490
G01 Z-0.1000
G01 Z0
G00 Z0.1000
G00 X-2.6560Y3.6490
G01 Z-0.1000
G01 Z0
G00 Z0.1000
G00 X-2.7560Y3.6490
G01 Z-0.1000
G01 Z0
G00 Z0.1000
G00 X-2.8560Y3.6490
G01 Z-0.1000
G01 Z0
G00 Z0.1000
G00 X-2.9560Y3.6490
G01 Z-0.1000
G01 Z0
G00 Z0.1000
G00 X-3.0560Y3.6490
G01 Z-0.1000
G01 Z0
G00 Z0.1000
G00 X-3.1560Y3.6490
G01 Z-0.1000
G01 Z0
G00 Z0.1000
G00 X-3.2560Y3.6490
G01 Z-0.1000
G01 Z0
G00 Z0.1000
G00 X-3.3560Y3.6490
G01 Z-0.1000
G01 Z0
G00 Z0.1000
G00 X-3.4560Y3.6490
G01 Z-0.1000
G01 Z0
G00 Z0.1000
G00 X-3.5560Y3.6490
G01 Z-0.1000
G01 Z0
G00 Z0.1000
G00 X-3.6560Y3.6490
G01 Z-0.1000
G01 Z0
G00 Z0.1000
G00 X-3.7560Y3.6490
G01 Z-0.1000
G01 Z0
G00 Z0.1000
G00 X-1.4590Y3.0810
G01 Z-0.1000
G01 Z0
G00 Z0.1000
G00 X-1.3590Y3.0810
G01 Z-0.1000
G01 Z0
G00 Z0.1000
G00 X-1.2590Y3.0810
G01 Z-0.1000
G01 Z0
G00 Z0.1000
G00 X-1.1590Y3.0810
G01 Z-0.1000
G01 Z0
G00 Z0.1000
G00 X-1.1590Y3.3810
G01 Z-0.1000
G01 Z0
G00 Z0.1000
G00 X-1.2590Y3.3810
G01 Z-0.1000
G01 Z0
G00 Z0.1000
G00 X-1.3590Y3.3810
G01 Z-0.1000
G01 Z0
G00 Z0.1000
G00 X-1.4590Y3.3810
G01 Z-0.1000
G01 Z0
G00 Z0.1000
G00 X-2.1260Y3.4680
G01 Z-0.1000
G01 Z0
G00 Z0.1000
G00 X-2.0010Y3.4680
G01 Z-0.1000
G01 Z0
G00 Z0.1000
G00 X-0.8390Y3.5840
G01 Z-0.1000
G01 Z0
G00 Z0.1000
G00 X-0.8390Y3.4590
G01 Z-0.1000
G01 Z0
G00 Z0.1000
G00 X-0.8440Y3.1870
G01 Z-0.1000
G01 Z0
G00 Z0.1000
G00 X-0.8440Y3.0620
G01 Z-0.1000
G01 Z0
G00 Z0.1000
G00 X-4.1655Y2.6456
G01 Z-0.1000
G01 Z0
G00 Z0.1000
G00 X-4.0655Y2.6456
G01 Z-0.1000
G01 Z0
G00 Z0.1000
G00 X-3.9655Y2.6456
G01 Z-0.1000
G01 Z0
G00 Z0.1000
G00 X-4.1640Y2.2047
G01 Z-0.1000
G01 Z0
G00 Z0.1000
G00 X-4.0640Y2.2047
G01 Z-0.1000
G01 Z0
G00 Z0.1000
G00 X-3.9640Y2.2047
G01 Z-0.1000
G01 Z0
G00 Z0.1000
G00 X-4.9760Y2.9430
G01 Z-0.1000
G01 Z0
G00 Z0.1000
G00 X-4.8760Y2.9430
G01 Z-0.1000
G01 Z0
G00 Z0.1000
G00 X-4.7760Y2.9430
G01 Z-0.1000
G01 Z0
G00 Z0.1000
G00 X-1.9220Y3.7380
G01 Z-0.1000
G01 Z0
G00 Z0.1000
G00 X-2.0220Y3.7380
G01 Z-0.1000
G01 Z0
G00 Z0.1000
G00 X-2.1220Y3.7380
G01 Z-0.1000
G01 Z0
G00 Z0.1000
G00 X-2.8080Y2.8230
G01 Z-0.1000
G01 Z0
G00 Z0.1000
G00 X-3.0080Y2.8230
G01 Z-0.1000
G01 Z0
G00 Z0.1000
G00 X-3.4616Y2.4409
G01 Z-0.1000
G01 Z0
G00 Z0.1000
G00 X-3.9616Y2.4409
G01 Z-0.1000
G01 Z0
G00 Z0.1000
G00 X-4.5364Y2.3346
G01 Z-0.1000
G01 Z0
G00 Z0.1000
G00 X-4.5364Y1.8346
G01 Z-0.1000
G01 Z0
G00 Z0.1000
G00 X-4.5364Y3.0157
G01 Z-0.1000
G01 Z0
G00 Z0.1000
G00 X-4.5364Y2.5157
G01 Z-0.1000
G01 Z0
G00 Z0.1000
G00 X-0.8604Y2.6983
G01 Z-0.1000
G01 Z0
G00 Z0.1000
G00 X-1.3604Y2.6983
G01 Z-0.1000
G01 Z0
G00 Z0.1000
G00 X-1.6844Y3.4107
G01 Z-0.1000
G01 Z0
G00 Z0.1000
G00 X-1.6844Y2.9107
G01 Z-0.1000
G01 Z0
G00 Z0.1000
G00 X0.7086Y3.0708
G01 Z-0.1000
G01 Z0
G00 Z0.1000
G00 X0.7086Y3.2874
G01 Z-0.1000
G01 Z0
G00 Z0.1000
G00 X-0.0787Y3.1889
G01 Z-0.1000
G01 Z0
G00 Z0.1000
G00 X-0.0787Y3.5826
G01 Z-0.1000
G01 Z0
G00 Z0.1000
G00 X-0.0787Y2.7952
G01 Z-0.1000
G01 Z0
G00 Z0.1000
G00 X1.3060Y1.0438
G01 Z-0.1000
G01 Z0
G00 Z0.1000
G00 X1.3110Y0.0000
G01 Z-0.1000
G01 Z0
G00 Z0.1000
G00 X-4.9015Y0.2165
G01 Z-0.1000
G01 Z0
G00 Z0.1000
G00 X1.8378Y1.0433
G01 Z-0.1000
G01 Z0
G00 Z0.1000
G00 X1.8317Y0.0000
G01 Z-0.1000
G01 Z0
G00 Z0.1000
G00 X-4.9015Y1.0039
G01 Z-0.1000
G01 Z0
G00 Z0.1000
G00 X-4.1141Y-0.0629
G01 Z-0.1000
G01 Z0
G00 Z0.1000
G00 X-4.1181Y1.2992
G01 Z-0.1000
G01 Z0
G00 Z0.1000
G00 X-5.6496Y1.2992
G01 Z-0.1000
G01 Z0
G00 Z0.1000
G00 X-5.6496Y-0.0590
G01 Z-0.1000
G01 Z0
G00 Z0.1000
G00 X-2.2504Y1.9291
G01 Z-0.1000
G01 Z0
G00 Z0.1000
G00 X-2.0354Y1.9291
G01 Z-0.1000
G01 Z0
G00 Z0.1000
G00 X-1.8204Y1.9291
G01 Z-0.1000
G01 Z0
G00 Z0.1000
G00 X-3.0142Y1.9291
G01 Z-0.1000
G01 Z0
G00 Z0.1000
G00 X-2.7992Y1.9291
G01 Z-0.1000
G01 Z0
G00 Z0.1000
G00 X-2.5842Y1.9291
G01 Z-0.1000
G01 Z0
G00 Z0.1000
G00 X-1.2779Y1.9291
G01 Z-0.1000
G01 Z0
G00 Z0.1000
G00 X-1.0629Y1.9291
G01 Z-0.1000
G01 Z0
G00 Z0.1000
G00 X-0.8479Y1.9291
G01 Z-0.1000
G01 Z0
G00 Z0.1000
G00 X-0.0118Y2.0629
G01 Z-0.1000
G01 Z0
G00 Z0.1000
G00 X-0.0118Y1.6889
G01 Z-0.1000
G01 Z0
G00 Z0.1000
G00 X1.2401Y2.0629
G01 Z-0.1000
G01 Z0
G00 Z0.1000
G00 X1.2401Y1.6889
G01 Z-0.1000
G01 Z0
G00 Z0.1000
G00 X-1.0170Y0.2440
G01 Z-0.1000
G01 Z0
G00 Z0.1000
G00 X-1.0110Y1.1470
G01 Z-0.1000
G01 Z0
G00 Z0.1000
G00 X1.8503Y2.6574
G01 Z-0.1000
G01 Z0
G00 Z0.1000
G00 X-2.4212Y0.7751
G01 Z-0.1000
G01 Z0
G00 Z0.1000
G00 X-2.4212Y0.4011
G01 Z-0.1000
G01 Z0
G00 Z0.1000
G00 X-3.5629Y0.7874
G01 Z-0.1000
G01 Z0
G00 Z0.1000
G00 X-3.5629Y0.4133
G01 Z-0.1000
G01 Z0
G00 Z0.1000
G00 X0Y0
M05
