
G20
G90
G94
F3.00
G00 Z0.1000
M03
G4 P1
G00 X2.4092Y1.0640
G01 Z-0.0020
G01 X2.4093Y1.0157
G01 X2.4105Y1.0125
G01 X2.4128Y1.0099
G01 X2.4159Y1.0085
G01 X2.4190Y1.0082
G01 X2.4173Y0.8372
G01 X2.4185Y0.8317
G01 X2.4210Y0.8271
G01 X2.4248Y0.8229
G01 X2.4299Y0.8199
G01 X2.4380Y0.8182
G01 X2.9413Y0.8182
G01 X2.9473Y0.8192
G01 X2.9526Y0.8217
G01 X2.9571Y0.8258
G01 X2.9602Y0.8310
G01 X2.9618Y0.8390
G01 X2.9610Y0.8928
G01 X2.9658Y0.8931
G01 X2.9689Y0.8946
G01 X2.9716Y0.8979
G01 X2.9724Y0.9016
G01 X2.9724Y0.9808
G01 X2.9716Y0.9841
G01 X2.9695Y0.9869
G01 X2.9666Y0.9887
G01 X2.9641Y0.9892
G01 X2.9151Y0.9891
G01 X2.9105Y0.9869
G01 X2.9081Y0.9833
G01 X2.9076Y0.9012
G01 X2.9088Y0.8971
G01 X2.9111Y0.8946
G01 X2.9142Y0.8931
G01 X2.9194Y0.8928
G01 X2.9199Y0.8598
G01 X2.4590Y0.8598
G01 X2.4606Y1.0082
G01 X2.4640Y1.0087
G01 X2.4669Y1.0105
G01 X2.4690Y1.0132
G01 X2.4697Y1.0157
G01 X2.4695Y1.0661
G01 X2.4669Y1.0705
G01 X2.4623Y1.0727
G01 X2.4176Y1.0728
G01 X2.4142Y1.0720
G01 X2.4115Y1.0699
G01 X2.4097Y1.0670
G01 X2.4092Y1.0640
G00 Z0.1000
G00 X2.4092Y1.1310
G01 Z-0.0020
G01 X2.4092Y1.0836
G01 X2.4100Y1.0802
G01 X2.4121Y1.0775
G01 X2.4150Y1.0757
G01 X2.4176Y1.0752
G01 X2.4610Y1.0752
G01 X2.4648Y1.0760
G01 X2.4675Y1.0781
G01 X2.4693Y1.0810
G01 X2.4698Y1.0836
G01 X2.4698Y1.1314
G01 X2.4690Y1.1348
G01 X2.4669Y1.1375
G01 X2.4640Y1.1393
G01 X2.4606Y1.1398
G01 X2.4592Y1.2182
G01 X2.9201Y1.2182
G01 X2.9193Y1.0992
G01 X2.9151Y1.0991
G01 X2.9119Y1.0979
G01 X2.9093Y1.0956
G01 X2.9077Y1.0917
G01 X2.9078Y1.0095
G01 X2.9093Y1.0064
G01 X2.9111Y1.0046
G01 X2.9164Y1.0028
G01 X2.9649Y1.0029
G01 X2.9695Y1.0051
G01 X2.9722Y1.0095
G01 X2.9723Y1.0917
G01 X2.9707Y1.0956
G01 X2.9681Y1.0979
G01 X2.9649Y1.0991
G01 X2.9609Y1.0992
G01 X2.9617Y1.2410
G01 X2.9600Y1.2474
G01 X2.9561Y1.2533
G01 X2.9509Y1.2573
G01 X2.9452Y1.2594
G01 X2.4336Y1.2593
G01 X2.4279Y1.2572
G01 X2.4233Y1.2537
G01 X2.4197Y1.2488
G01 X2.4176Y1.2431
G01 X2.4190Y1.1398
G01 X2.4150Y1.1393
G01 X2.4121Y1.1375
G01 X2.4100Y1.1348
G01 X2.4092Y1.1310
G00 Z0.1000
G00 Z0.1000
G00 X0Y0
M05
